verilator/dump.vcd
$version Generated by VerilatedVcd $end
$timescale 1ps $end
 $scope module top $end
  $scope module $unit $end
   $var wire 32 > X_I [31:0] $end
   $var wire 32 ? X_F [31:0] $end
   $var wire 32 @ X_W [31:0] $end
   $var wire 32 A Y_I [31:0] $end
   $var wire 32 ? Y_F [31:0] $end
   $var wire 32 B Y_W [31:0] $end
   $var wire 32 C A_F [31:0] $end
   $var wire 32 A A_I [31:0] $end
   $var wire 32 D A_W [31:0] $end
   $var wire 32 C B_F [31:0] $end
   $var wire 32 A B_I [31:0] $end
   $var wire 32 D B_W [31:0] $end
   $var wire 32 C C_F [31:0] $end
   $var wire 32 A C_I [31:0] $end
   $var wire 32 D C_W [31:0] $end
   $var wire 32 E XL_W [31:0] $end
   $var wire 32 ? XL_F [31:0] $end
   $var wire 32 F XM_W [31:0] $end
   $var wire 32 G T [31:0] $end
   $var wire 32 H SQ_W [31:0] $end
   $var wire 32 I SQ_F [31:0] $end
   $var wire 32 I SQ_OUT_W_NO_T [31:0] $end
   $var wire 32 J SQ_OUT_F_NO_T [31:0] $end
   $var wire 32 K SQ_OUT_T [31:0] $end
   $var wire 32 ? SQ_OUT_F [31:0] $end
   $var wire 32 G SQ_OUT_W [31:0] $end
   $var wire 32 L MULT1_W_NO_T [31:0] $end
   $var wire 32 M MULT1_F_NO_T [31:0] $end
   $var wire 32 C MULT1_T [31:0] $end
   $var wire 32 N MULT1_W [31:0] $end
   $var wire 32 O MULT2_W_NO_T [31:0] $end
   $var wire 32 M MULT2_F_NO_T [31:0] $end
   $var wire 32 C MULT2_T [31:0] $end
   $var wire 32 P MULT2_W [31:0] $end
   $var wire 32 Q A_PAD [31:0] $end
  $upscope $end
  $var wire 1 6 clk $end
  $var wire 1 7 rst_b $end
  $var wire 24 8 x [23:0] $end
  $var wire 1 9 x_dv $end
  $var wire 25 : y [24:0] $end
  $var wire 1 ; y_dv $end
  $scope module quadra_top $end
   $var wire 1 6 clk $end
   $var wire 1 7 rst_b $end
   $var wire 24 8 x [23:0] $end
   $var wire 1 9 x_dv $end
   $var wire 25 : y [24:0] $end
   $var wire 1 ; y_dv $end
   $var wire 1 & dv_p0 $end
   $var wire 1 ' dv_p1 $end
   $var wire 1 ( dv_p2 $end
   $scope module u_quadra $end
    $var wire 1 6 clk $end
    $var wire 1 7 rst_b $end
    $var wire 24 8 x [23:0] $end
    $var wire 25 : y [24:0] $end
    $var wire 10 < x_m [9:0] $end
    $var wire 14 = x_l [13:0] $end
    $var wire 22 # lut_a_raw [21:0] $end
    $var wire 22 $ lut_b_raw [21:0] $end
    $var wire 22 % lut_c_raw [21:0] $end
    $var wire 22 ) c1_lut_a [21:0] $end
    $var wire 22 * c1_lut_b [21:0] $end
    $var wire 22 + c1_lut_c [21:0] $end
    $var wire 14 , c1_x_l [13:0] $end
    $var wire 22 - c2_lut_a [21:0] $end
    $var wire 17 . mult_1 [16:0] $end
    $var wire 37 / mult_raw_1 [36:0] $end
    $var wire 8 1 mult_2 [7:0] $end
    $var wire 28 2 mult_raw_2 [27:0] $end
    $var wire 10 3 x_sq_in [9:0] $end
    $var wire 19 4 x_sq_raw [18:0] $end
    $var wire 5 5 x_sq_out [4:0] $end
    $scope module u_lut $end
     $var wire 10 < x1 [9:0] $end
     $var wire 22 # a [21:0] $end
     $var wire 22 $ b [21:0] $end
     $var wire 22 % c [21:0] $end
    $upscope $end
   $upscope $end
  $upscope $end
 $upscope $end
$enddefinitions $end


#500
b1101001010111110110001 #
b0000000101101010000101 $
b0000000101100100010101 %
0&
0'
1(
b0011001010111111000101 )
b0100111111001110000010 *
b0100011111111101100010 +
b01011000110101 ,
b1110111100100100010010 -
b11010101101010110 .
b0000110111011000011101001010111101010 /
b11111101 1
b0000000000000000000000000000 2
b0000000001 3
b0000000000000000001 4
b00000 5
06
17
b000000000000000000000000 8
09
b0000101111000001101111000 :
1;
b0000000000 <
b00000000000000 =
b00000000000000000000000000000001 >
b00000000000000000000000000010111 ?
b00000000000000000000000000011000 @
b00000000000000000000000000000010 A
b00000000000000000000000000011001 B
b00000000000000000000000000010100 C
b00000000000000000000000000010110 D
b00000000000000000000000000001110 E
b00000000000000000000000000001010 F
b00000000000000000000000000000101 G
b00000000000000000000000000001001 H
b00000000000000000000000000010010 I
b00000000000000000000000000100100 J
b00000000000000000000000000001101 K
b00000000000000000000000000100101 L
b00000000000000000000000000101011 M
b00000000000000000000000000010001 N
b00000000000000000000000000011100 O
b00000000000000000000000000001000 P
b00000000000000000000000000000011 Q
#1000
0(
b1101001010111110110001 )
b0000000101101010000101 *
b0000000101100100010101 +
b00000000000000 ,
b1001010111111000101000 -
b00001101110110000 .
b0000000000000000000000000000000000000 /
b00000000 1
b0000000000 3
b0000000000000000000 4
16
b1111110110111010001100101 :
0;
#1500
06
07
#2000
b1001010111110110001000 -
b00000000000000000 .
16
b1111001011001100111011000 :
#2500
06
17
#3000
16
b1111001010111110110001000 :
#3500
06
#4000
16
#4500
06
#5000
16
#5500
06
#6000
16
#6500
06
#7000
16
#7500
06
#8000
16
#8500
06
#9000
16
#9500
06
#10000
16
#10500
06
#11000
16
#11500
06
#12000
16
#12500
06
#13000
16
#13500
06
#14000
16
#14500
06
#15000
16
#15500
b0000000000000000000000 #
b0000000000000000000000 $
b0000000000000000000000 %
06
b111111111111111111110000 8
19
b1111111111 <
b11111111110000 =
#16000
1&
b0000000000000000000000 )
b0000000000000000000000 *
b0000000000000000000000 +
b11111111110000 ,
b0000001111 3
b0000000000011100001 4
16
#16500
06
b111111111111111111110001 8
b11111111110001 =
#17000
1'
b11111111110001 ,
b0000000000000000000000 -
16
#17500
06
b111111111111111111110010 8
b11111111110010 =
#18000
1(
b11111111110010 ,
16
b0000000000000000000000000 :
1;
#18500
06
b111111111111111111110011 8
b11111111110011 =
#19000
b11111111110011 ,
16
#19500
06
b111111111111111111110100 8
b11111111110100 =
#20000
b11111111110100 ,
16
#20500
06
b111111111111111111110101 8
b11111111110101 =
#21000
b11111111110101 ,
16
#21500
06
b111111111111111111110110 8
b11111111110110 =
#22000
b11111111110110 ,
16
#22500
06
b111111111111111111110111 8
b11111111110111 =
#23000
b11111111110111 ,
16
#23500
06
b111111111111111111111000 8
b11111111111000 =
#24000
b11111111111000 ,
16
#24500
06
b111111111111111111111001 8
b11111111111001 =
#25000
b11111111111001 ,
16
#25500
06
b111111111111111111111010 8
b11111111111010 =
#26000
b11111111111010 ,
16
#26500
06
b111111111111111111111011 8
b11111111111011 =
#27000
b11111111111011 ,
16
#27500
06
b111111111111111111111100 8
b11111111111100 =
#28000
b11111111111100 ,
16
#28500
06
b111111111111111111111101 8
b11111111111101 =
#29000
b11111111111101 ,
16
#29500
06
b111111111111111111111110 8
b11111111111110 =
#30000
b11111111111110 ,
16
#30500
06
b111111111111111111111111 8
b11111111111111 =
#31000
b11111111111111 ,
16
#31500
b1101001010111110110001 #
b0000000101101010000101 $
b0000000101100100010101 %
06
b000000000000000000000000 8
09
b0000000000 <
b00000000000000 =
#32000
0&
b1101001010111110110001 )
b0000000101101010000101 *
b0000000101100100010101 +
b00000000000000 ,
b0000000000 3
b0000000000000000000 4
16
#32500
06
#33000
0'
b1001010111110110001000 -
16
#33500
06
#34000
0(
16
b1111001010111110110001000 :
0;
