verilator/dump.vcd
$version Generated by VerilatedVcd $end
$timescale 1ps $end
 $scope module top $end
  $scope module $unit $end
   $var wire 32 A X_I [31:0] $end
   $var wire 32 B X_F [31:0] $end
   $var wire 32 C X_W [31:0] $end
   $var wire 32 D Y_I [31:0] $end
   $var wire 32 B Y_F [31:0] $end
   $var wire 32 E Y_W [31:0] $end
   $var wire 32 F A_W [31:0] $end
   $var wire 32 G B_W [31:0] $end
   $var wire 32 G C_W [31:0] $end
  $upscope $end
  $var wire 1 4 clk $end
  $var wire 1 5 rst_b $end
  $var wire 24 6 x [23:0] $end
  $var wire 1 7 x_dv $end
  $var wire 25 8 y [24:0] $end
  $var wire 1 9 y_dv $end
  $scope module quadra_top $end
   $var wire 1 4 clk $end
   $var wire 1 5 rst_b $end
   $var wire 24 6 x [23:0] $end
   $var wire 1 7 x_dv $end
   $var wire 25 8 y [24:0] $end
   $var wire 1 9 y_dv $end
   $var wire 1 & dv_p0 $end
   $var wire 1 ' dv_p1 $end
   $var wire 1 ( dv_p2 $end
   $var wire 25 ) y_from_quadra [24:0] $end
   $var wire 25 * y_p1 [24:0] $end
   $var wire 25 + y_p2 [24:0] $end
   $scope module u_quadra $end
    $var wire 1 4 clk $end
    $var wire 1 5 rst_n $end
    $var wire 24 6 x [23:0] $end
    $var wire 25 ) y [24:0] $end
    $var wire 7 : lut_idx [6:0] $end
    $var wire 17 ; x2_unsigned [16:0] $end
    $var wire 22 # coeff_a [21:0] $end
    $var wire 17 $ coeff_b [16:0] $end
    $var wire 17 % coeff_c [16:0] $end
    $var wire 34 < x2_sq_un [33:0] $end
    $var wire 18 > x2_s [17:0] $end
    $var wire 35 ? x2_sq_s [34:0] $end
    $scope module my_lut $end
     $var wire 7 : x1 [6:0] $end
     $var wire 22 # a [21:0] $end
     $var wire 17 $ b [16:0] $end
     $var wire 17 % c [16:0] $end
    $upscope $end
    $scope module my_square $end
     $var wire 17 ; x2 [16:0] $end
     $var wire 34 < sq [33:0] $end
    $upscope $end
    $scope module unnamedblk1 $end
     $var wire 13 , sq_fxd [12:0] $end
     $var wire 30 - t0_fxd [29:0] $end
     $var wire 35 . p1 [34:0] $end
     $var wire 30 0 t1_fxd [29:0] $end
     $var wire 31 1 p2 [30:0] $end
     $var wire 30 2 t2_fxd [29:0] $end
     $var wire 30 3 s_fxd [29:0] $end
    $upscope $end
   $upscope $end
  $upscope $end
 $upscope $end
$enddefinitions $end


#500
b1101001010111110110001 #
b00101101010000101 $
b00101100100010101 %
0&
0'
1(
b0110001000111000101010011 )
b1100111100001011100100001 *
b0100110100111110111100001 +
b1011000110101 ,
b101101111110111100100100010010 -
b01001100010111110011010101101010110 .
b110100001100100011101111111101 0
b1011100011010110100000111110100 1
b000110101011011111010100111011 2
b000110011011010100110101011000 3
04
15
b000000000000000000000000 6
07
b0100110100111110111100001 8
19
b0000000 :
b00000000000000000 ;
b0000000000000000000000000000000000 <
b000000000000000000 >
b00000000000000000000000000000000000 ?
b00000000000000000000000000000001 A
b00000000000000000000000000010111 B
b00000000000000000000000000011000 C
b00000000000000000000000000000010 D
b00000000000000000000000000011001 E
b00000000000000000000000000010110 F
b00000000000000000000000000010001 G
#1000
0(
b1101001010111110110001000 )
b0110001000111000101010011 *
b1100111100001011100100001 +
b0000000000000 ,
b111010010101111101100010000000 -
b00000000000000000000000000000000000 .
b000000000000000000000000000000 0
b0000000000000000000000000000000 1
b000000000000000000000000000000 2
b111010010101111101100010000000 3
14
b1100111100001011100100001 8
09
#1500
04
05
#2000
b0000000000000000000000000 )
b0000000000000000000000000 *
b0000000000000000000000000 +
14
b0000000000000000000000000 8
#2500
04
15
#3000
b1101001010111110110001000 )
14
#3500
04
#4000
b1101001010111110110001000 *
14
#4500
04
#5000
b1101001010111110110001000 +
14
b1101001010111110110001000 8
#5500
04
#6000
14
#6500
04
#7000
14
#7500
04
#8000
14
#8500
04
#9000
14
#9500
04
#10000
14
#10500
04
#11000
14
#11500
04
#12000
14
#12500
04
#13000
14
#13500
04
#14000
14
#14500
04
#15000
14
#15500
b1111110101010100000001 #
b11000000000011010 $
b00000011101010111 %
04
b111111111111111111110000 6
17
b1111111 :
b11111111111110000 ;
b1111111111110000000000000100000000 <
b011111111111110000 >
b01111111111110000000000000100000000 ?
#16000
1&
b1111101101010100111100011 )
b0111111111111 ,
b111111101010101000000010000000 -
b11100000000001110111111111001100000 .
b111111110000000000111011111111 0
b0000000011101010110100010101001 1
b000000000000000000111010101101 2
b111111011010101001111000101100 3
14
#16500
04
b111111111111111111110001 6
b11111111111110001 ;
b1111111111110001000000000011100001 <
b011111111111110001 >
b01111111111110001000000000011100001 ?
#17000
1'
b1111101101010100111100001 )
b1111101101010100111100011 *
b11100000000001110110111111001111010 .
b111111110000000000111011011111 0
b111111011010101001111000001100 3
14
#17500
04
b111111111111111111110010 6
b11111111111110010 ;
b1111111111110010000000000011000100 <
b011111111111110010 >
b01111111111110010000000000011000100 ?
#18000
1(
b1111101101010100111011111 )
b1111101101010100111100001 *
b1111101101010100111100011 +
b11100000000001110101111111010010100 .
b111111110000000000111010111111 0
b111111011010101001110111101100 3
14
b1111101101010100111100011 8
19
#18500
04
b111111111111111111110011 6
b11111111111110011 ;
b1111111111110011000000000010101001 <
b011111111111110011 >
b01111111111110011000000000010101001 ?
#19000
b1111101101010100111011101 )
b1111101101010100111011111 *
b1111101101010100111100001 +
b11100000000001110100111111010101110 .
b111111110000000000111010011111 0
b111111011010101001110111001100 3
14
b1111101101010100111100001 8
#19500
04
b111111111111111111110100 6
b11111111111110100 ;
b1111111111110100000000000010010000 <
b011111111111110100 >
b01111111111110100000000000010010000 ?
#20000
b1111101101010100111011011 )
b1111101101010100111011101 *
b1111101101010100111011111 +
b11100000000001110011111111011001000 .
b111111110000000000111001111111 0
b111111011010101001110110101100 3
14
b1111101101010100111011111 8
#20500
04
b111111111111111111110101 6
b11111111111110101 ;
b1111111111110101000000000001111001 <
b011111111111110101 >
b01111111111110101000000000001111001 ?
#21000
b1111101101010100111011001 )
b1111101101010100111011011 *
b1111101101010100111011101 +
b11100000000001110010111111011100010 .
b111111110000000000111001011111 0
b111111011010101001110110001100 3
14
b1111101101010100111011101 8
#21500
04
b111111111111111111110110 6
b11111111111110110 ;
b1111111111110110000000000001100100 <
b011111111111110110 >
b01111111111110110000000000001100100 ?
#22000
b1111101101010100111010111 )
b1111101101010100111011001 *
b1111101101010100111011011 +
b11100000000001110001111111011111100 .
b111111110000000000111000111111 0
b111111011010101001110101101100 3
14
b1111101101010100111011011 8
#22500
04
b111111111111111111110111 6
b11111111111110111 ;
b1111111111110111000000000001010001 <
b011111111111110111 >
b01111111111110111000000000001010001 ?
#23000
b1111101101010100111010101 )
b1111101101010100111010111 *
b1111101101010100111011001 +
b11100000000001110000111111100010110 .
b111111110000000000111000011111 0
b111111011010101001110101001100 3
14
b1111101101010100111011001 8
#23500
04
b111111111111111111111000 6
b11111111111111000 ;
b1111111111111000000000000001000000 <
b011111111111111000 >
b01111111111111000000000000001000000 ?
#24000
b1111101101010100111010011 )
b1111101101010100111010101 *
b1111101101010100111010111 +
b11100000000001101111111111100110000 .
b111111110000000000110111111111 0
b111111011010101001110100101100 3
14
b1111101101010100111010111 8
#24500
04
b111111111111111111111001 6
b11111111111111001 ;
b1111111111111001000000000000110001 <
b011111111111111001 >
b01111111111111001000000000000110001 ?
#25000
b1111101101010100111010001 )
b1111101101010100111010011 *
b1111101101010100111010101 +
b11100000000001101110111111101001010 .
b111111110000000000110111011111 0
b111111011010101001110100001100 3
14
b1111101101010100111010101 8
#25500
04
b111111111111111111111010 6
b11111111111111010 ;
b1111111111111010000000000000100100 <
b011111111111111010 >
b01111111111111010000000000000100100 ?
#26000
b1111101101010100111001111 )
b1111101101010100111010001 *
b1111101101010100111010011 +
b11100000000001101101111111101100100 .
b111111110000000000110110111111 0
b111111011010101001110011101100 3
14
b1111101101010100111010011 8
#26500
04
b111111111111111111111011 6
b11111111111111011 ;
b1111111111111011000000000000011001 <
b011111111111111011 >
b01111111111111011000000000000011001 ?
#27000
b1111101101010100111001101 )
b1111101101010100111001111 *
b1111101101010100111010001 +
b11100000000001101100111111101111110 .
b111111110000000000110110011111 0
b111111011010101001110011001100 3
14
b1111101101010100111010001 8
#27500
04
b111111111111111111111100 6
b11111111111111100 ;
b1111111111111100000000000000010000 <
b011111111111111100 >
b01111111111111100000000000000010000 ?
#28000
b1111101101010100111001011 )
b1111101101010100111001101 *
b1111101101010100111001111 +
b11100000000001101011111111110011000 .
b111111110000000000110101111111 0
b111111011010101001110010101100 3
14
b1111101101010100111001111 8
#28500
04
b111111111111111111111101 6
b11111111111111101 ;
b1111111111111101000000000000001001 <
b011111111111111101 >
b01111111111111101000000000000001001 ?
#29000
b1111101101010100111001001 )
b1111101101010100111001011 *
b1111101101010100111001101 +
b11100000000001101010111111110110010 .
b111111110000000000110101011111 0
b111111011010101001110010001100 3
14
b1111101101010100111001101 8
#29500
04
b111111111111111111111110 6
b11111111111111110 ;
b1111111111111110000000000000000100 <
b011111111111111110 >
b01111111111111110000000000000000100 ?
#30000
b1111101101010100111000111 )
b1111101101010100111001001 *
b1111101101010100111001011 +
b11100000000001101001111111111001100 .
b111111110000000000110100111111 0
b111111011010101001110001101100 3
14
b1111101101010100111001011 8
#30500
04
b111111111111111111111111 6
b11111111111111111 ;
b1111111111111111000000000000000001 <
b011111111111111111 >
b01111111111111111000000000000000001 ?
#31000
b1111101101010100111000101 )
b1111101101010100111000111 *
b1111101101010100111001001 +
b11100000000001101000111111111100110 .
b111111110000000000110100011111 0
b111111011010101001110001001100 3
14
b1111101101010100111001001 8
#31500
b1101001010111110110001 #
b00101101010000101 $
b00101100100010101 %
04
b000000000000000000000000 6
07
b0000000 :
b00000000000000000 ;
b0000000000000000000000000000000000 <
b000000000000000000 >
b00000000000000000000000000000000000 ?
#32000
0&
b1101001010111110110001000 )
b1111101101010100111000101 *
b1111101101010100111000111 +
b0000000000000 ,
b111010010101111101100010000000 -
b00000000000000000000000000000000000 .
b000000000000000000000000000000 0
b0000000000000000000000000000000 1
b000000000000000000000000000000 2
b111010010101111101100010000000 3
14
b1111101101010100111000111 8
#32500
04
#33000
0'
b1101001010111110110001000 *
b1111101101010100111000101 +
14
b1111101101010100111000101 8
#33500
04
#34000
0(
b1101001010111110110001000 +
14
b1101001010111110110001000 8
09
