verilator/dump.vcd
$version Generated by VerilatedVcd $end
$timescale 1ps $end
 $scope module top $end
  $scope module $unit $end
   $var wire 32 > X_I [31:0] $end
   $var wire 32 ? X_F [31:0] $end
   $var wire 32 @ X_W [31:0] $end
   $var wire 32 A Y_I [31:0] $end
   $var wire 32 ? Y_F [31:0] $end
   $var wire 32 B Y_W [31:0] $end
   $var wire 32 C R_F [31:0] $end
   $var wire 32 A S_I [31:0] $end
   $var wire 32 D S_F [31:0] $end
   $var wire 32 E S_W [31:0] $end
   $var wire 32 > X1_I [31:0] $end
   $var wire 32 F X1_F [31:0] $end
   $var wire 32 G X1_W [31:0] $end
   $var wire 32 H X2_I [31:0] $end
   $var wire 32 I X2_J [31:0] $end
   $var wire 32 J X2_F [31:0] $end
   $var wire 32 J X2_W [31:0] $end
   $var wire 32 A A_I [31:0] $end
   $var wire 32 K A_F [31:0] $end
   $var wire 32 L A_W [31:0] $end
   $var wire 32 M B_I [31:0] $end
   $var wire 32 N B_F [31:0] $end
   $var wire 32 J B_W [31:0] $end
   $var wire 32 M C_I [31:0] $end
   $var wire 32 N C_F [31:0] $end
   $var wire 32 J C_W [31:0] $end
   $var wire 32 I SQ_I [31:0] $end
   $var wire 32 ? SQ_F [31:0] $end
   $var wire 32 J SQ_W [31:0] $end
   $var wire 32 O SQ_FULL_W [31:0] $end
   $var wire 32 ? SQ_DROP [31:0] $end
   $var wire 32 A T0_I [31:0] $end
   $var wire 32 D T0_F [31:0] $end
   $var wire 32 E T0_W [31:0] $end
   $var wire 32 G T0_PAD [31:0] $end
   $var wire 32 M T1_I [31:0] $end
   $var wire 32 D T1_F [31:0] $end
   $var wire 32 P T1_W [31:0] $end
   $var wire 32 Q T1_FULL_W [31:0] $end
   $var wire 32 R T1_FRAC_DROP [31:0] $end
   $var wire 32 M T2_I [31:0] $end
   $var wire 32 D T2_F [31:0] $end
   $var wire 32 P T2_W [31:0] $end
   $var wire 32 Q T2_FULL_W [31:0] $end
   $var wire 32 R T2_FRAC_DROP [31:0] $end
  $upscope $end
  $var wire 1 6 clk $end
  $var wire 1 7 rst_b $end
  $var wire 24 8 x [23:0] $end
  $var wire 1 9 x_dv $end
  $var wire 25 : y [24:0] $end
  $var wire 1 ; y_dv $end
  $scope module quadra_top $end
   $var wire 1 6 clk $end
   $var wire 1 7 rst_b $end
   $var wire 24 8 x [23:0] $end
   $var wire 1 9 x_dv $end
   $var wire 25 : y [24:0] $end
   $var wire 1 ; y_dv $end
   $var wire 1 & dv_p0 $end
   $var wire 1 ' dv_p1 $end
   $var wire 1 ( dv_p2 $end
   $scope module u_quadra $end
    $var wire 1 6 clk $end
    $var wire 1 7 rst_b $end
    $var wire 24 8 x [23:0] $end
    $var wire 25 : y [24:0] $end
    $var wire 7 < x1 [6:0] $end
    $var wire 17 = x2 [16:0] $end
    $var wire 22 # a [21:0] $end
    $var wire 17 $ b [16:0] $end
    $var wire 17 % c [16:0] $end
    $var wire 22 ) c1_a [21:0] $end
    $var wire 17 * c1_b [16:0] $end
    $var wire 17 + c1_c [16:0] $end
    $var wire 17 , c1_x2 [16:0] $end
    $var wire 29 - c2_t0 [28:0] $end
    $var wire 30 . c2_t1 [29:0] $end
    $var wire 30 / c2_t2 [29:0] $end
    $var wire 17 0 sq [16:0] $end
    $var wire 29 1 s [28:0] $end
    $var wire 25 2 keep_bits [24:0] $end
    $var wire 1 3 guard_bit $end
    $var wire 1 4 sticky_bit $end
    $var wire 1 5 round_up $end
    $scope module u_lut $end
     $var wire 7 < x1 [6:0] $end
     $var wire 22 # a [21:0] $end
     $var wire 17 $ b [16:0] $end
     $var wire 17 % c [16:0] $end
    $upscope $end
    $scope module u_square $end
     $var wire 17 , x2 [16:0] $end
     $var wire 17 0 sq [16:0] $end
    $upscope $end
   $upscope $end
  $upscope $end
 $upscope $end
$enddefinitions $end


#500
b1101001010111110110001 #
b00101101010000101 $
b00101100100010101 %
0&
0'
1(
b0011001010111111000101 )
b11111001110000010 *
b11111111101100010 +
b00001011000110101 ,
b01101111110111100100100010010 -
b100010111110011010101101010110 .
b110100001100100011101111111101 /
b00000000000000011 0
b00101001001111011000001100101 1
b0010100100111101100000110 2
03
14
05
06
17
b000000000000000000000000 8
09
b0000101111000001101111000 :
1;
b0000000 <
b00000000000000000 =
b00000000000000000000000000000001 >
b00000000000000000000000000010111 ?
b00000000000000000000000000011000 @
b00000000000000000000000000000010 A
b00000000000000000000000000011001 B
b00000000000000000000000000000100 C
b00000000000000000000000000011011 D
b00000000000000000000000000011101 E
b00000000000000000000000000000110 F
b00000000000000000000000000000111 G
b00000000000000000000000000000000 H
b11111111111111111111111111111010 I
b00000000000000000000000000010001 J
b00000000000000000000000000010100 K
b00000000000000000000000000010110 L
b00000000000000000000000000000011 M
b00000000000000000000000000001110 N
b00000000000000000000000000100010 O
b00000000000000000000000000011110 P
b00000000000000000000000000100011 Q
b00000000000000000000000000001010 R
#1000
0(
b1101001010111110110001 )
b00101101010000101 *
b00101100100010101 +
b00000000000000000 ,
b00110010101111110001010000000 -
b111111111111111011101010100101 .
b111111111111111111111111111111 /
b00000000000000000 0
b00110010101111001110100100100 1
b0011001010111100111010010 2
16
b0010100100111101100000110 :
0;
#1500
06
07
#2000
b11010010101111101100010000000 -
b000000000000000000000000000000 .
b000000000000000000000000000000 /
b11010010101111101100010000000 1
b1101001010111110110001000 2
04
16
b0011001010111100111010010 :
#2500
06
17
#3000
16
b1101001010111110110001000 :
#3500
06
#4000
16
#4500
06
#5000
16
#5500
06
#6000
16
#6500
06
#7000
16
#7500
06
#8000
16
#8500
06
#9000
16
#9500
06
#10000
16
#10500
06
#11000
16
#11500
06
#12000
16
#12500
06
#13000
16
#13500
06
#14000
16
#14500
06
#15000
16
#15500
b1111110101010100000001 #
b11000000000011010 $
b00000011101010111 %
06
b111111111111111111110000 8
19
b1111111 <
b11111111111110000 =
#16000
1&
b1111110101010100000001 )
b11000000000011010 *
b00000011101010111 +
b11111111111110000 ,
b00000011111111111 0
16
#16500
06
b111111111111111111110001 8
b11111111111110001 =
#17000
1'
b11111111111110001 ,
b11111101010101000000010000000 -
b111111110000000000111011111111 .
b000000000000000000111010101100 /
b11111011010101001111000101011 1
b1111101101010100111100010 2
13
14
15
16
#17500
06
b111111111111111111110010 8
b11111111111110010 =
#18000
1(
b11111111111110010 ,
b111111110000000000111011011111 .
b11111011010101001111000001011 1
b1111101101010100111100000 2
16
b1111101101010100111100011 :
1;
#18500
06
b111111111111111111110011 8
b11111111111110011 =
#19000
b11111111111110011 ,
b111111110000000000111010111111 .
b11111011010101001110111101011 1
b1111101101010100111011110 2
16
b1111101101010100111100001 :
#19500
06
b111111111111111111110100 8
b11111111111110100 =
#20000
b11111111111110100 ,
b111111110000000000111010011111 .
b11111011010101001110111001011 1
b1111101101010100111011100 2
16
b1111101101010100111011111 :
#20500
06
b111111111111111111110101 8
b11111111111110101 =
#21000
b11111111111110101 ,
b111111110000000000111001111111 .
b11111011010101001110110101011 1
b1111101101010100111011010 2
16
b1111101101010100111011101 :
#21500
06
b111111111111111111110110 8
b11111111111110110 =
#22000
b11111111111110110 ,
b111111110000000000111001011111 .
b11111011010101001110110001011 1
b1111101101010100111011000 2
16
b1111101101010100111011011 :
#22500
06
b111111111111111111110111 8
b11111111111110111 =
#23000
b11111111111110111 ,
b111111110000000000111000111111 .
b11111011010101001110101101011 1
b1111101101010100111010110 2
16
b1111101101010100111011001 :
#23500
06
b111111111111111111111000 8
b11111111111111000 =
#24000
b11111111111111000 ,
b111111110000000000111000011111 .
b11111011010101001110101001011 1
b1111101101010100111010100 2
16
b1111101101010100111010111 :
#24500
06
b111111111111111111111001 8
b11111111111111001 =
#25000
b11111111111111001 ,
b111111110000000000110111111111 .
b11111011010101001110100101011 1
b1111101101010100111010010 2
16
b1111101101010100111010101 :
#25500
06
b111111111111111111111010 8
b11111111111111010 =
#26000
b11111111111111010 ,
b111111110000000000110111011111 .
b11111011010101001110100001011 1
b1111101101010100111010000 2
16
b1111101101010100111010011 :
#26500
06
b111111111111111111111011 8
b11111111111111011 =
#27000
b11111111111111011 ,
b111111110000000000110110111111 .
b11111011010101001110011101011 1
b1111101101010100111001110 2
16
b1111101101010100111010001 :
#27500
06
b111111111111111111111100 8
b11111111111111100 =
#28000
b11111111111111100 ,
b111111110000000000110110011111 .
b11111011010101001110011001011 1
b1111101101010100111001100 2
16
b1111101101010100111001111 :
#28500
06
b111111111111111111111101 8
b11111111111111101 =
#29000
b11111111111111101 ,
b111111110000000000110101111111 .
b11111011010101001110010101011 1
b1111101101010100111001010 2
16
b1111101101010100111001101 :
#29500
06
b111111111111111111111110 8
b11111111111111110 =
#30000
b11111111111111110 ,
b111111110000000000110101011111 .
b11111011010101001110010001011 1
b1111101101010100111001000 2
16
b1111101101010100111001011 :
#30500
06
b111111111111111111111111 8
b11111111111111111 =
#31000
b11111111111111111 ,
b111111110000000000110100111111 .
b11111011010101001110001101011 1
b1111101101010100111000110 2
16
b1111101101010100111001001 :
#31500
b1101001010111110110001 #
b00101101010000101 $
b00101100100010101 %
06
b000000000000000000000000 8
09
b0000000 <
b00000000000000000 =
#32000
0&
b1101001010111110110001 )
b00101101010000101 *
b00101100100010101 +
b00000000000000000 ,
b111111110000000000110100011111 .
b00000000000000000 0
b11111011010101001110001001011 1
b1111101101010100111000100 2
16
b1111101101010100111000111 :
#32500
06
#33000
0'
b11010010101111101100010000000 -
b000000000000000000000000000000 .
b000000000000000000000000000000 /
b11010010101111101100010000000 1
b1101001010111110110001000 2
03
04
05
16
b1111101101010100111000101 :
#33500
06
#34000
0(
16
b1101001010111110110001000 :
0;
